[
  {
    "script": "persona.SshBuildAgent",
    "description": "SshBuildAgent",
    "scale": 1,
    "weight": 0.7
  },
  {
    "script": "persona.HttpBuildAgent",
    "description": "HttpBuildAgent",
    "scale": 1,
    "weight": 0.25
  },
  {
    "script": "persona.DeveloperUsingPullRequests",
    "description": "DeveloperUsingPullRequests",
    "scale": 1,
    "weight": 0.05
  }
]
